…
## # A tibble: 156 x 8
##    subject script  timebins aggbaseline timebins.Index   poly1     poly2   poly3
##    <chr>   <chr>      <dbl>       <dbl>          <dbl>   <dbl>     <dbl>   <dbl>
##  1 11c.edf cursive        0       -2.87              1 -0.327   3.91e- 1 -0.412 
##  2 11c.edf cursive      100       -3.56              2 -0.301   2.97e- 1 -0.214 
##  3 11c.edf cursive      200       -4.04              3 -0.275   2.11e- 1 -0.0576
##  4 11c.edf cursive      300       -1.73              4 -0.248   1.33e- 1  0.0612
##  5 11c.edf cursive      400        2.29              5 -0.222   6.25e- 2  0.146 
##  6 11c.edf cursive      500        4.69              6 -0.196  -6.82e-17  0.200 
##  7 11c.edf cursive      600       -2.86              7 -0.170  -5.47e- 2  0.228 
##  8 11c.edf cursive      700      -10.1               8 -0.144  -1.02e- 1  0.232 
##  9 11c.edf cursive      800       -8.49              9 -0.118  -1.41e- 1  0.217 
## 10 11c.edf cursive      900       -3.05             10 -0.0915 -1.72e- 1  0.185 
## # … with 146 more rows
…
